2. Empirical Example: TTS 2016 • AccessPack
…
sum_jobs <- od_ft %>% group_by(Destination) %>% summarise(jobs = mean(jobs))
sum(sum_jobs$jobs, na.rm = T)
#> [1] 3073846

The total number of jobs is preserved.

Aggregate available jobs (‘V_ij’) by origin:

availability <- od_ft %>%
  group_by(Origin) %>%
  summarize(V_i = sum(V_ij)) 

availability
#> # A tibble: 2,928 x 2
#>    Origin        V_i
#>    <chr>       <dbl>
#>  1 1       351.     
#>  2 100     905.     
#>  3 1001      0.00881
#>  4 1002    132.     
#>  5 1003      7.38   
#>  6 1007      0.321  
#>  7 1008      0.920  
#>  8 101    1917.     
#>  9 1011      0.996  
#> 10 1012      0.774  
#> # ... with 2,918 more rows
…
