Empirical Example: GTHA Workers • AccessPack
…
sum_jobs <- od_ft %>% group_by(Destination) %>% summarise(jobs = mean(jobs))
sum(sum_jobs$jobs, na.rm = T)
#> [1] 3081900

The total number of jobs is preserved.

Aggregate available jobs (‘V_ij’) by origin:

availability <- od_ft %>%
  group_by(Origin) %>%
  summarize(avail_jobs = sum(V_ij)) 

availability
#> # A tibble: 2,973 x 2
#>    Origin avail_jobs
#>    <chr>       <dbl>
#>  1 1          NA    
#>  2 100        NA    
#>  3 1001       NA    
#>  4 1002       NA    
#>  5 1003       NA    
#>  6 1007        0.245
#>  7 1008       NA    
#>  8 101        NA    
#>  9 1011        0.834
#> 10 1012        1.06 
#> # ... with 2,963 more rows
…
